{
  "htmlElements": {
    "tags": [
      "a",
      "article",
      "aside",
      "blockquote",
      "body",
      "br",
      "button",
      "caption",
      "code",
      "div",
      "em",
      "footer",
      "h1",
      "h2",
      "h3",
      "head",
      "header",
      "hr",
      "html",
      "img",
      "input",
      "label",
      "li",
      "link",
      "main",
      "meta",
      "nav",
      "ol",
      "p",
      "path",
      "polygon",
      "script",
      "span",
      "strong",
      "svg",
      "table",
      "tbody",
      "td",
      "th",
      "thead",
      "title",
      "tr",
      "ul"
    ],
    "classes": [
      "-z-50",
      "2xl:bg-pink-200",
      "2xl:block",
      "2xl:hidden",
      "aspect-square",
      "basis-full",
      "bg-gray-100",
      "bg-gray-200",
      "bg-opacity-25",
      "bg-red-200",
      "bg-white/[.95]",
      "block",
      "border",
      "border-gray-200",
      "border-t",
      "border-white/50",
      "border-y-8",
      "bottom-0",
      "box",
      "container",
      "fill-current",
      "fixed",
      "flex",
      "flex-1",
      "flex-col",
      "flex-wrap",
      "font-bold",
      "font-semibold",
      "gap-4",
      "grid",
      "grid-cols-1",
      "h-1/3",
      "h-4",
      "h-8",
      "h-full",
      "hidden",
      "hover:bg-amber-400",
      "hover:text-blue-400",
      "hover:text-blue-500",
      "hover:text-neutral-900",
      "inset-0",
      "italic",
      "items-center",
      "justify-between",
      "justify-center",
      "justify-self-center",
      "lastmod",
      "lg:basis-1/4",
      "lg:basis-3/4",
      "lg:bg-green-200",
      "lg:block",
      "lg:flex",
      "lg:flex-row",
      "lg:gap-4",
      "lg:hidden",
      "lg:mx-24",
      "lg:prose-lg",
      "mb-16",
      "mb-2",
      "md:bg-yellow-200",
      "md:block",
      "md:grid-cols-3",
      "md:hidden",
      "md:mx-12",
      "md:px-0",
      "md:w-14",
      "min-h-screen",
      "mr-8",
      "mt-12",
      "mt-2",
      "mt-4",
      "mt-6",
      "mt-8",
      "mx-4",
      "mx-auto",
      "overflow-y-auto",
      "p-2",
      "p-3",
      "p-4",
      "pointer-events-auto",
      "pointer-events-none",
      "pr-2",
      "print:basis-full",
      "print:hidden",
      "prose",
      "pt-4",
      "px-4",
      "px-6",
      "right-0",
      "rounded",
      "rounded-full",
      "rounded-lg",
      "scroll-auto",
      "scroll-py-4",
      "sm:bg-red-200",
      "sm:block",
      "sm:flex",
      "sm:hidden",
      "sm:mt-0",
      "sm:mt-16",
      "sm:px-4",
      "sm:space-x-2",
      "sm:w-auto",
      "sticky",
      "table-auto",
      "table-collapse",
      "text-4xl",
      "text-center",
      "text-gray-400",
      "text-gray-500",
      "text-gray-700",
      "text-left",
      "text-right",
      "text-sky-400",
      "text-sm",
      "text-xl",
      "text-xs",
      "top-0",
      "touch-auto",
      "underline",
      "uppercase",
      "w-12",
      "w-4",
      "w-8",
      "w-full",
      "warn",
      "xl:bg-blue-200",
      "xl:block",
      "xl:hidden",
      "xl:w-20",
      "z-50"
    ],
    "ids": [
      "TableOfContents",
      "allgemeines",
      "andere",
      "ausgangspunkt",
      "container-area",
      "container-menu",
      "dimension",
      "einleitung",
      "einspeisevergütung",
      "elektroinstallation",
      "fazit",
      "foerderung",
      "gruppen-vor-ort",
      "haftpflicht",
      "hide-button",
      "kontaktmöglichkeiten",
      "kosten",
      "marktstammdatenregister",
      "montage",
      "mppt",
      "nachbarn",
      "nav-menu",
      "nav-toggle",
      "netzbetreiber",
      "netzparallelbetrieb",
      "parameter-area",
      "parameter-menu",
      "peak-leistung",
      "photovoltaik",
      "potential",
      "probier-es-selbst-aus",
      "recht",
      "show-button",
      "size-indicator",
      "solarmodul",
      "solarzelle",
      "standort",
      "stickyTOC",
      "studien",
      "verantwortlich",
      "vermieterin",
      "verschattung",
      "was-bedeutet-das",
      "wechselrichter",
      "werkzeuge",
      "wie-anschliessen",
      "wieland-stecker",
      "zum-vergleich",
      "zweirichtungszähler",
      "überblick"
    ]
  }
}