<?xml version="1.0" encoding="utf-8"?>
<svg version="1.1" id="Ebene_1" xmlns="http://www.w3.org/2000/svg" xmlns:xlink="http://www.w3.org/1999/xlink" x="0px" y="0px"
	 viewBox="0 0 800 800" style="enable-background:new 0 0 800 800;" xml:space="preserve">
<style type="text/css">
	.st0{fill:#FFFFFF;}
</style>
<g>
	<path d="M779.6,333l-45.1,3.5L723,187c-0.1-0.7-0.3-1.4-0.7-2C653.2,82.3,538.4,18.6,415.1,14.6c-1.2,0-2.3,0.4-3.2,1.3
		c-0.8,0.9-1.2,2-1.2,3.2l3.3,42.7l-75.4,5.8l-3.3-42.7c-0.1-1.2-0.7-2.3-1.6-3c-0.9-0.7-2.2-1-3.3-0.8
		C209.2,43.9,105.5,124.4,52.9,236.4c-0.3,0.7-0.4,1.4-0.4,2.1L64,388.1l-45.1,3.5c-2.3,0.2-4,2.2-3.9,4.5l5.2,67.1
		c0.2,2.3,2.2,4,4.5,3.9l45.1-3.5L81.3,613c0.1,0.7,0.3,1.4,0.7,2c69.1,102.7,183.9,166.3,307.2,170.4c1.2,0,2.3-0.4,3.2-1.3
		c0.8-0.9,1.2-2,1.2-3.2l-3.4-43.8l75.4-5.8l3.4,43.8c0.1,1.2,0.7,2.3,1.6,3c0.8,0.6,1.9,0.9,2.9,0.9c0.2,0,0.3,0,0.5-0.1
		c121.2-22.8,224.9-103.3,277.5-215.3c0.3-0.7,0.4-1.4,0.4-2.1l-11.5-149.5l45.1-3.5c2.3-0.2,4-2.2,3.9-4.5l-5.2-67.1
		C783.9,334.6,781.9,332.8,779.6,333z"/>
	<g>
		<g>
			<path class="st0" d="M253.1,204.4c-20.1,5.6-34.6,17.9-43.6,36.9c-9.2,18.8-13.7,36-13.5,51.8c0.2,7.6,0.6,14.5,1.3,20.7
				c0.7,6.2,1.6,11.7,2.8,16.5c5.9-11.3,12.9-20,21.1-25.9c8.7-6.6,20.4-10.6,35.1-11.9c14.9-1.3,28.4,3,40.7,13.2
				c12.3,10.5,18.3,25.8,18,45.7c-0.3,20.3-6.7,35.7-19.2,46.1c-12.9,10.6-27.5,15.2-43.8,13.8c-16.5-1.6-30-8.2-40.3-19.7
				c-10.4-12.1-17.5-26.1-21.4-42c-3.9-15.7-6.3-31.2-7.3-46.5c-0.9-14.7,0.8-30.7,5.2-48.1c4-17.1,11.7-31.4,23.2-42.7
				c11.6-11.6,24.3-19.1,37.9-22.6c14.1-2.9,26.8-3.3,38.1-1.1c5.4,1.4,7.9,4.3,7.4,8.7c-0.7,4.4-5.1,5.9-13.2,4.7
				C273.2,200.7,263.7,201.5,253.1,204.4z M205.8,345.5c2.3,16,7.6,28.4,16.1,37.2c8.1,8.8,18.5,13.6,31.2,14.2
				c12.6,0.9,24-2.7,34.2-10.6c9.5-7.5,14.4-19.4,14.8-35.6c0-15.6-4.6-27.3-13.8-35.2c-9.2-7.7-20-10.8-32.4-9.2
				c-13,1.6-23,5.5-29.9,11.5c-3.7,2.9-7.2,6.8-10.7,11.4C212,333.9,208.8,339.3,205.8,345.5z"/>
			<path class="st0" d="M392.7,183.8c10.3,0,18.4,1.8,24.4,5.2c2.4,1.5,5,3.7,7.9,6.6c2.9,3,6,6.6,9.4,10.8c3,4.5,5.8,10.4,8.3,17.8
				c2.5,7.4,4.8,16.4,6.9,27.2c2,10.5,3.4,20.5,4.2,30c0.7,9.5,0.9,18.6,0.6,27.5c-1.1,17.7-2.5,31-4.3,39.7
				c-1.1,4.6-2.3,8.9-3.8,12.9c-1.4,4-3,7.8-4.8,11.4c-1.8,3.4-3.8,6.7-6,9.7c-2.2,3-4.8,5.6-7.7,7.7c-2.9,2.1-6,3.6-9.3,4.7
				c-3.3,1.1-7,1.6-11.1,1.5c-8-0.4-15.4-3-22.1-7.8c-2.9-2.6-5.8-5.6-8.7-8.9c-2.9-3.3-5.4-6.9-7.6-10.8c-2.4-3.9-4.4-8.1-6-12.6
				c-1.7-4.5-3.3-9.2-4.9-14.2c-1.4-5-2.7-11.2-3.7-18.5c-1.1-7.3-2.2-15.8-3.4-25.6c-1.1-9.5-1.6-19.1-1.3-28.5
				c0.3-9.5,1.2-19,2.7-28.5c2.9-18.5,8-32.3,15.3-41.5C374.3,190.9,382.8,185.6,392.7,183.8z M381,204.4
				c-3.6,6.4-6.6,13.2-8.9,20.2c-2.3,7.1-4.1,14.4-5.4,22.1c-1.1,7.7-1.6,16.4-1.7,26.1c-0.1,9.7,0.6,20.6,1.9,32.6
				c2.4,23.4,7.1,42,14.1,55.8c7.2,13.6,15.6,20.5,25.3,20.8c10.1,0.7,17.8-4.9,23-16.5c5.8-12.1,8.9-29.1,9.3-50.9
				c0.4-11.3,0.2-21.9-0.4-31.8c-0.7-9.9-1.9-19.4-3.6-28.5c-3.4-17.6-8-30.8-13.8-39.5c-3-4.5-6-8-9-10.5c-3-2.5-5.9-4.3-8.9-5.3
				C397,197,389.6,198.8,381,204.4z"/>
			<path class="st0" d="M545.6,172c10.3,0,18.4,1.8,24.4,5.2c2.4,1.5,5,3.7,7.9,6.6c2.9,3,6,6.6,9.4,10.8c3,4.5,5.8,10.4,8.3,17.8
				c2.5,7.4,4.8,16.4,6.9,27.2c2,10.5,3.4,20.5,4.2,30c0.7,9.5,0.9,18.6,0.6,27.5c-1.1,17.7-2.5,31-4.3,39.7
				c-1.1,4.6-2.3,8.9-3.8,12.9c-1.4,4-3,7.8-4.8,11.4c-1.8,3.4-3.8,6.7-6,9.7c-2.2,3-4.8,5.6-7.7,7.7c-2.9,2.1-6,3.6-9.3,4.7
				c-3.3,1.1-7,1.6-11.1,1.5c-8-0.4-15.4-3-22.1-7.8c-2.9-2.6-5.8-5.6-8.7-8.9c-2.9-3.3-5.4-6.9-7.6-10.8c-2.4-3.9-4.4-8.1-6-12.6
				c-1.7-4.5-3.3-9.2-4.9-14.2c-1.4-5-2.7-11.2-3.7-18.5c-1.1-7.3-2.2-15.8-3.4-25.6c-1.1-9.5-1.6-19.1-1.3-28.5
				c0.3-9.5,1.2-19,2.7-28.5c2.9-18.5,8-32.3,15.3-41.5C527.2,179.1,535.7,173.8,545.6,172z M533.9,192.6
				c-3.6,6.4-6.6,13.2-8.9,20.2c-2.3,7.1-4.1,14.4-5.4,22.1c-1.1,7.7-1.6,16.4-1.7,26.1c-0.1,9.7,0.6,20.6,1.9,32.6
				c2.4,23.4,7.1,42,14.1,55.8c7.2,13.6,15.6,20.5,25.3,20.8c10.1,0.7,17.8-4.9,23-16.5c5.8-12.1,8.9-29.1,9.3-50.9
				c0.4-11.3,0.2-21.9-0.4-31.8c-0.7-9.9-1.9-19.4-3.6-28.5c-3.4-17.6-8-30.8-13.8-39.5c-3-4.5-6-8-9-10.5c-3-2.5-5.9-4.3-8.9-5.3
				C549.9,185.2,542.5,187,533.9,192.6z"/>
		</g>
		<g>
			<path class="st0" d="M305.2,456.2c-0.1,3.6-1.2,19.1-3.5,46.4c-2.3,27.4-5.5,66.7-9.6,118.1c-2.8,5.7-5.6,8-8.2,6.8
				c-3.2-1.5-5.4-5.1-6.5-10.8c-0.6-2.9-3.4-15.4-8.4-37.7c-5.1-22.2-12.3-54.2-21.6-95.8C242.4,575,239,624,237.1,630.1
				c-5.1,4.9-9.5,3.8-13.1-3.1l-34.2-159.9c-0.9-4.9,0.3-7.8,3.7-8.8c3.5-0.8,5.9,0.7,7,4.6L229.1,596
				c5.7-92.5,9.9-139.5,12.6-140.9c2.6-1.6,5.3-1.6,8-0.1c2.7,1.3,14.1,46,34.2,133.9l10.3-134c0.5-4.3,2.5-6.5,5.9-6.6
				C303.4,448.4,305.2,451,305.2,456.2z"/>
			<path class="st0" d="M330.7,509.3c4.2-7.5,10.5-13.1,18.8-16.6c8-2.8,16.5-3.8,25.5-2.7c8.5,1.1,15.9,4.5,22.4,10.4
				c3.1,3,5.8,6.3,8.1,9.8c2.2,3.5,3.9,7.4,4.9,11.6c1.2,4.2,1.9,9,2.1,14.4c0.2,5.4,0.1,11.4-0.4,18.2c-0.7,6.7-1.4,12.7-2.1,17.9
				c-0.7,5.2-1.4,9.6-1.9,13.3c3.3,6.8,7.4,11.4,12.4,13.7c4.8,2.4,9.9,3.3,15.1,2.7c4.9-0.5,7.5,1.1,7.6,5.1
				c0.2,4.3-3.1,6.7-9.7,7.2c-6.3,0.5-12.3-1-17.8-4.5c-5.9-3.7-9.9-7-11.8-9.9c-3.3,8.1-8.4,13.8-15.1,17.1
				c-7.3,3.5-15.3,5-24.1,4.4c-4.3-0.4-8.3-1.2-11.9-2.7c-3.6-1.4-6.8-3.7-9.4-6.7c-5.4-5.6-8.5-14-9.4-25.3
				c-1-10.9,1.7-20.8,8-29.7c6.2-8.7,14.4-13,24.7-13c9.9-0.2,17.4,1.7,22.6,6c4.9,3.9,8.5,9.7,10.6,17.4c1.5-21.2,1.3-35-0.6-41.4
				c-2-6.2-5.3-11.5-10-15.9c-4.5-4.6-9.9-7.5-16.3-8.5c-6.6-0.9-12.9-0.1-18.9,2.2c-6.2,2.4-11,6.6-14.5,12.7
				c-3.9,2.9-6.8,3.5-8.6,1.9C328.8,516.5,328.7,513.5,330.7,509.3z M391.6,572.5c-3.8-6.4-7.1-10.9-10-13.4
				c-2.6-2.4-7.3-3.7-14.2-4.1c-6.9,0-11.9,1.8-15,5.3c-1.7,1.8-3.1,3.7-4.1,5.6c-1,1.9-1.7,3.8-2.3,5.7c-0.5,2.1-0.8,4.4-0.9,6.9
				c-0.1,2.5-0.1,5.3,0,8.4c0.3,5.8,2.4,11,6.3,15.5c3.6,4.5,8.5,7,14.7,7.4c6,0.4,11.4-0.6,16-3c4.6-2.8,8-6.9,10.1-12.4
				C394,588.7,393.8,581.4,391.6,572.5z"/>
			<path class="st0" d="M578.3,511.3c2,44.1,5.8,69.8,11.3,77.1c5.4,7.5,11.3,12.2,17.8,14.1c6.7,2.1,15.6,2.7,26.9,1.8
				c4.4-0.7,6.7-2.8,7-6.5c0.1-3.8-2.2-5.6-6.8-5.4c-8.9,0.2-16.1-0.3-21.7-1.4c-5.5-0.8-10.2-3.8-13.8-9.2
				c-3.6-4.7-6.6-28.6-8.9-71.6l48.8-3.8c4.2-1,6.3-3.2,6.4-6.7c0.1-3.4-2.1-5.6-6.7-6.4l-49.1,3.8l-4.6-56.7
				c-1-4.4-3.2-6.5-6.7-6.4c-3.4,0.1-5.1,3.1-5,8.9l4.5,55.4l-87,6.5l-4.6-56.7c-1-4.4-3.2-6.5-6.7-6.4c-3.4,0.1-5.1,3.1-5,8.9
				l4.5,55.5l-34.2,3.1c-4.7,1.2-6.9,3.8-6.6,7.7c0.3,3.6,2.8,5.4,7.6,5.3l33.7-3.1c2,44.1,5.8,69.8,11.3,77.1
				c5.4,7.5,11.3,12.2,17.8,14.1c6.7,2.1,15.6,2.7,26.9,1.8c4.4-0.7,6.7-2.8,7-6.5c0.1-3.8-2.2-5.6-6.8-5.4
				c-8.9,0.2-16.1-0.3-21.7-1.4c-5.5-0.8-10.2-3.8-13.8-9.2c-3.6-4.7-6.6-28.6-8.9-71.6L578.3,511.3z"/>
		</g>
	</g>
</g>
</svg>
